square root - duckdb leverage
…
  copy_to(con, A, overwrite = TRUE)
  copy_to(con, B, overwrite = TRUE)
  
  return(
    cross_join(tbl(con, "A"), tbl(con, "B")) 
    |> transmute(ID.x, ID.y, eucl_dist = sqrt((x.y - x.x)^2 + (y.y - y.x)^2 + (z.y - z.x)^2))
    |> collect()
  )
}

con <- dbConnect(duckdb::duckdb(), dbdir = "my-euclid-db.duckdb", read_only = FALSE)
eucl_duckdb(A, B)

# A tibble: 10,000 × 3
    ID.x  ID.y eucl_dist
   <int> <int>     <dbl>
 1     1     1      2.45
 2     2     1      3   
 3     3     1      5.66
 4     4     1      2.83
 5     5     1      3   
 6     6     1      6.40
 7     7     1      2.83
 8     8     1      5   
 9     9     1      3.16
10    10     1      3.16
# ℹ 9,990 more rows
…
